{
  "question": [
    {
      "id": 1,
      "title": "Mảng một chiều",
      "content": "Cho một dãy số nguyên A gồm n phần tử, dãy B được xây dựng từ dãy A theo qui tắc như sau: phần tử thứ i của dãy B là trung bình cộng của i phần tử đầu tiên của dãy A. Ví dụ dãy A như sau: 1 3 2 6 8 khi đó dãy B được xây dựng như sau:\nKết quả cuối cùng của dãy B là: 1 2 2 3 4."
    },
    {
      "id": 2,
      "title": "Mảng 2 chiều",
      "content": "Cho ma trận MxN được mô tả như bên dưới.\n 1  2  3  4 \n [.........] \n 8  9 10 12.\nViết chương trình chuyển ma trân trên thành ma trận nghịch đảo :\n 8  9 10 12 \n  [.........] \n 1  2  3  4  \n "
    },
    {
      "id": 3,
      "title": "Câu hỏi số 3",
      "content": "Nội dung câu hỏi số 3"
    },
    {
      "id": 4,
      "title": "Câu hỏi số 4",
      "content": "Nội dung câu hỏi số 4"
    },
    {
      "id": 5,
      "title": "Câu hỏi số 5",
      "content": "Nội dung câu hỏi số 5"
    }
  ]
}